…
Eventually I want to build in some smarter logic for placing the labels so that they don’t overlap with the chart too much, but for now it’s not too hard to just mess with the vjust and hjust or nudge_x and nudge_y parameters to place them where you want.

Slicing and Dicing

Something I find myself frequently needing to do is to take a dataset with categorical variables and filter it to include only the categories that occur the most frequently. For example, maybe I want to look at only the island with the most observations from the penguins dataset. Enter slice_top_categories.

penguins %>% 
  slice_top_categories(1, island)

## # A tibble: 168 × 8
##    species island bill_length_mm bill_depth_mm flipper_length_mm body_mass_g
##    <fct>   <fct>           <dbl>         <dbl>             <int>       <int>
##  1 Adelie  Biscoe           37.8          18.3               174        3400
##  2 Adelie  Biscoe           37.7          18.7               180        3600
##  3 Adelie  Biscoe           35.9          19.2               189        3800
##  4 Adelie  Biscoe           38.2          18.1               185        3950
##  5 Adelie  Biscoe           38.8          17.2               180        3800
##  6 Adelie  Biscoe           35.3          18.9               187        3800
##  7 Adelie  Biscoe           40.6          18.6               183        3550
##  8 Adelie  Biscoe           40.5          17.9               187        3200
##  9 Adelie  Biscoe           37.9          18.6               172        3150
## 10 Adelie  Biscoe           40.5          18.9               180        3950
## # … with 158 more rows, and 2 more variables: sex <fct>, year <int>

There is an argument for specifying a weight variable to use in the counts as well. So if I wanted the “heaviest” species, I could go like this.

penguins %>% 
  slice_top_categories(1, species, .wt = body_mass_g)

## # A tibble: 124 × 8
##    species island bill_length_mm bill_depth_mm flipper_length_mm body_mass_g
##    <fct>   <fct>           <dbl>         <dbl>             <int>       <int>
##  1 Gentoo  Biscoe           46.1          13.2               211        4500
##  2 Gentoo  Biscoe           50            16.3               230        5700
##  3 Gentoo  Biscoe           48.7          14.1               210        4450
##  4 Gentoo  Biscoe           50            15.2               218        5700
##  5 Gentoo  Biscoe           47.6          14.5               215        5400
##  6 Gentoo  Biscoe           46.5          13.5               210        4550
##  7 Gentoo  Biscoe           45.4          14.6               211        4800
##  8 Gentoo  Biscoe           46.7          15.3               219        5200
##  9 Gentoo  Biscoe           43.3          13.4               209        4400
## 10 Gentoo  Biscoe           46.8          15.4               215        5150
## # … with 114 more rows, and 2 more variables: sex <fct>, year <int>

I can use this for arbitrarily many columns as well, so if I wanted the 2 most frequently occurring (species, sex) pair weighted by body mass, I could go like this.

penguins %>% 
  slice_top_categories(2, species, sex, .wt = body_mass_g)

## # A tibble: 134 × 8
##    species island    bill_length_mm bill_depth_mm flipper_length_mm body_mass_g
##    <fct>   <fct>              <dbl>         <dbl>             <int>       <int>
##  1 Adelie  Torgersen           39.1          18.7               181        3750
##  2 Adelie  Torgersen           39.3          20.6               190        3650
##  3 Adelie  Torgersen           39.2          19.6               195        4675
##  4 Adelie  Torgersen           38.6          21.2               191        3800
##  5 Adelie  Torgersen           34.6          21.1               198        4400
##  6 Adelie  Torgersen           42.5          20.7               197        4500
##  7 Adelie  Torgersen           46            21.5               194        4200
##  8 Adelie  Biscoe              37.7          18.7               180        3600
##  9 Adelie  Biscoe              38.2          18.1               185        3950
## 10 Adelie  Biscoe              38.8          17.2               180        3800
## # … with 124 more rows, and 2 more variables: sex <fct>, year <int>
…
